EESchema Schematic File Version 4
EELAYER 30 0
EELAYER END
$Descr A4 11693 8268
encoding utf-8
Sheet 1 1
Title ""
Date ""
Rev ""
Comp ""
Comment1 ""
Comment2 ""
Comment3 ""
Comment4 ""
$EndDescr
$Comp
L Connector_Generic:Conn_01x08 J1
U 1 1 5C7138CD
P 2650 2050
F 0 "J1" H 2730 2042 50  0000 L CNN
F 1 "Conn_01x08" H 2730 1951 50  0000 L CNN
F 2 "Connector_PinHeader_2.54mm:PinHeader_1x08_P2.54mm_Vertical" H 2650 2050 50  0001 C CNN
F 3 "~" H 2650 2050 50  0001 C CNN
	1    2650 2050
	1    0    0    -1  
$EndComp
$Comp
L Connector_Generic:Conn_01x08 J3
U 1 1 5C7141CA
P 3950 2050
F 0 "J3" H 4030 2042 50  0000 L CNN
F 1 "Conn_01x08" H 4030 1951 50  0000 L CNN
F 2 "Connector_PinSocket_2.54mm:PinSocket_1x08_P2.54mm_Vertical" H 3950 2050 50  0001 C CNN
F 3 "~" H 3950 2050 50  0001 C CNN
	1    3950 2050
	1    0    0    -1  
$EndComp
Wire Wire Line
	3750 1750 2450 1750
Wire Wire Line
	3750 1850 2450 1850
Wire Wire Line
	3750 1950 2450 1950
Wire Wire Line
	2250 2050 2250 2000
$Comp
L power:GND #PWR0101
U 1 1 5C715A0D
P 2250 2250
F 0 "#PWR0101" H 2250 2000 50  0001 C CNN
F 1 "GND" H 2255 2077 50  0000 C CNN
F 2 "" H 2250 2250 50  0001 C CNN
F 3 "" H 2250 2250 50  0001 C CNN
	1    2250 2250
	1    0    0    -1  
$EndComp
$Comp
L power:GND #PWR0102
U 1 1 5C71631E
P 4250 2250
F 0 "#PWR0102" H 4250 2000 50  0001 C CNN
F 1 "GND" H 4255 2077 50  0000 C CNN
F 2 "" H 4250 2250 50  0001 C CNN
F 3 "" H 4250 2250 50  0001 C CNN
	1    4250 2250
	1    0    0    -1  
$EndComp
Wire Wire Line
	2450 2250 2250 2250
Wire Wire Line
	2450 2450 3600 2450
Wire Wire Line
	3750 2350 2450 2350
$Comp
L power:+5V #PWR0103
U 1 1 5C717A1E
P 2250 2000
F 0 "#PWR0103" H 2250 1850 50  0001 C CNN
F 1 "+5V" H 2265 2173 50  0000 C CNN
F 2 "" H 2250 2000 50  0001 C CNN
F 3 "" H 2250 2000 50  0001 C CNN
	1    2250 2000
	1    0    0    -1  
$EndComp
Text Label 3000 1750 0    50   ~ 0
_KBCLOCK
Text Label 3000 1850 0    50   ~ 0
_KBDATA
Text Label 3000 1950 0    50   ~ 0
_KBRESET
Text Label 3050 2050 0    50   ~ 0
VCC
Text Label 3050 2350 0    50   ~ 0
STATUS
Text Label 3050 2450 0    50   ~ 0
INUSE
Wire Wire Line
	3750 2250 4250 2250
$Comp
L Connector_Generic:Conn_01x01 J2
U 1 1 5C71AD82
P 1525 3150
F 0 "J2" H 1443 2925 50  0000 C CNN
F 1 "Conn_01x01" H 1443 3016 50  0000 C CNN
F 2 "Connector_PinHeader_2.54mm:PinHeader_1x01_P2.54mm_Horizontal" H 1525 3150 50  0001 C CNN
F 3 "~" H 1525 3150 50  0001 C CNN
	1    1525 3150
	-1   0    0    1   
$EndComp
Wire Wire Line
	3600 2650 3600 2450
Connection ~ 3600 2450
Wire Wire Line
	3000 3150 2900 3150
Wire Wire Line
	2250 2050 2450 2050
Connection ~ 2450 2050
Wire Wire Line
	2450 2050 3750 2050
$Comp
L Device:Q_PNP_BEC Q1
U 1 1 5C72B0F2
P 3700 3400
F 0 "Q1" H 3891 3446 50  0000 L CNN
F 1 "MMBT3906" H 3891 3355 50  0000 L CNN
F 2 "Package_TO_SOT_SMD:SOT-23" H 3900 3500 50  0001 C CNN
F 3 "~" H 3700 3400 50  0001 C CNN
	1    3700 3400
	1    0    0    -1  
$EndComp
$Comp
L Device:R R1
U 1 1 5C72C169
P 3150 3150
F 0 "R1" V 2943 3150 50  0000 C CNN
F 1 "4.7k" V 3034 3150 50  0000 C CNN
F 2 "Resistor_SMD:R_0603_1608Metric_Pad1.05x0.95mm_HandSolder" V 3080 3150 50  0001 C CNN
F 3 "~" H 3150 3150 50  0001 C CNN
	1    3150 3150
	0    1    1    0   
$EndComp
$Comp
L Device:R R2
U 1 1 5C72CA97
P 3150 3750
F 0 "R2" V 2943 3750 50  0000 C CNN
F 1 "4.7k" V 3034 3750 50  0000 C CNN
F 2 "Resistor_SMD:R_0603_1608Metric_Pad1.05x0.95mm_HandSolder" V 3080 3750 50  0001 C CNN
F 3 "~" H 3150 3750 50  0001 C CNN
	1    3150 3750
	0    1    1    0   
$EndComp
Connection ~ 2900 3150
Wire Wire Line
	2900 3750 3000 3750
Wire Wire Line
	4300 3750 4300 3700
$Comp
L power:+5V #PWR0105
U 1 1 5C72EBBC
P 4300 3700
F 0 "#PWR0105" H 4300 3550 50  0001 C CNN
F 1 "+5V" H 4315 3873 50  0000 C CNN
F 2 "" H 4300 3700 50  0001 C CNN
F 3 "" H 4300 3700 50  0001 C CNN
	1    4300 3700
	1    0    0    -1  
$EndComp
Wire Wire Line
	3300 3150 3300 3400
Wire Wire Line
	3600 2450 3750 2450
Wire Wire Line
	3300 3750 3800 3750
Wire Wire Line
	3500 3400 3300 3400
Wire Wire Line
	3800 3600 3800 3750
Connection ~ 3800 3750
Wire Wire Line
	3800 3750 4300 3750
Wire Wire Line
	3800 3200 3800 2650
Wire Wire Line
	3800 2650 3600 2650
Wire Wire Line
	2900 3150 2900 3750
$Comp
L 74xGxx:74LVC1G125 U1
U 1 1 65952DAA
P 2650 3150
F 0 "U1" H 2625 2975 50  0000 C CNN
F 1 "74LV1T125" H 2625 2884 50  0000 C CNN
F 2 "Package_TO_SOT_SMD:SOT-353_SC-70-5" H 2650 3150 50  0001 C CNN
F 3 "" H 2650 3150 50  0001 C CNN
	1    2650 3150
	1    0    0    -1  
$EndComp
$Comp
L power:GND #PWR0104
U 1 1 6595543E
P 2425 2725
F 0 "#PWR0104" H 2425 2475 50  0001 C CNN
F 1 "GND" H 2430 2552 50  0000 C CNN
F 2 "" H 2425 2725 50  0001 C CNN
F 3 "" H 2425 2725 50  0001 C CNN
	1    2425 2725
	1    0    0    -1  
$EndComp
Wire Wire Line
	2650 2950 2650 2725
Wire Wire Line
	2650 2725 2425 2725
Wire Wire Line
	2700 3100 2700 2725
Wire Wire Line
	2700 3200 2700 3575
$Comp
L power:GND #PWR0106
U 1 1 659584DA
P 2700 3575
F 0 "#PWR0106" H 2700 3325 50  0001 C CNN
F 1 "GND" H 2705 3402 50  0000 C CNN
F 2 "" H 2700 3575 50  0001 C CNN
F 3 "" H 2700 3575 50  0001 C CNN
	1    2700 3575
	1    0    0    -1  
$EndComp
$Comp
L power:+5V #PWR0107
U 1 1 65958A63
P 2700 2725
F 0 "#PWR0107" H 2700 2575 50  0001 C CNN
F 1 "+5V" H 2715 2898 50  0000 C CNN
F 2 "" H 2700 2725 50  0001 C CNN
F 3 "" H 2700 2725 50  0001 C CNN
	1    2700 2725
	1    0    0    -1  
$EndComp
$Comp
L Device:C C1
U 1 1 6595A95D
P 4625 3100
F 0 "C1" H 4740 3146 50  0000 L CNN
F 1 "100nF" H 4740 3055 50  0000 L CNN
F 2 "Capacitor_SMD:C_0805_2012Metric_Pad1.15x1.40mm_HandSolder" H 4663 2950 50  0001 C CNN
F 3 "~" H 4625 3100 50  0001 C CNN
	1    4625 3100
	1    0    0    -1  
$EndComp
$Comp
L power:+5V #PWR0108
U 1 1 6595D560
P 4625 2950
F 0 "#PWR0108" H 4625 2800 50  0001 C CNN
F 1 "+5V" H 4640 3123 50  0000 C CNN
F 2 "" H 4625 2950 50  0001 C CNN
F 3 "" H 4625 2950 50  0001 C CNN
	1    4625 2950
	1    0    0    -1  
$EndComp
$Comp
L power:GND #PWR0109
U 1 1 6595DBEF
P 4625 3250
F 0 "#PWR0109" H 4625 3000 50  0001 C CNN
F 1 "GND" H 4630 3077 50  0000 C CNN
F 2 "" H 4625 3250 50  0001 C CNN
F 3 "" H 4625 3250 50  0001 C CNN
	1    4625 3250
	1    0    0    -1  
$EndComp
$Comp
L Jumper:SolderJumper_2_Open NO_U1
U 1 1 65952113
P 2700 4050
F 0 "NO_U1" H 2700 4255 50  0000 C CNN
F 1 "SolderJumper_2_Open" H 2700 4164 50  0000 C CNN
F 2 "Jumper:SolderJumper-2_P1.3mm_Open_Pad1.0x1.5mm" H 2700 4050 50  0001 C CNN
F 3 "~" H 2700 4050 50  0001 C CNN
	1    2700 4050
	1    0    0    -1  
$EndComp
Wire Wire Line
	2850 4050 2900 4050
Wire Wire Line
	2900 4050 2900 3750
Connection ~ 2900 3750
Wire Wire Line
	2550 4050 2325 4050
Wire Wire Line
	2325 3150 2325 4050
Connection ~ 2325 3150
Wire Wire Line
	2325 3150 2350 3150
Text Notes 1700 4600 0    50   ~ 0
U1 can be omitted when 5V level compatible sources \n(e.g. CF-Cards) are in use.\nWhen U1 is not fitted, please close NO_U1.\n\nConsequently, leave NO_U1 open when U1 is mounted.
$Comp
L Device:R R3
U 1 1 659E6978
P 2000 2925
F 0 "R3" V 1793 2925 50  0000 C CNN
F 1 "15k" V 1884 2925 50  0000 C CNN
F 2 "Resistor_SMD:R_0805_2012Metric" V 1930 2925 50  0001 C CNN
F 3 "~" H 2000 2925 50  0001 C CNN
	1    2000 2925
	-1   0    0    1   
$EndComp
Wire Wire Line
	1725 3150 2000 3150
Connection ~ 2000 3150
Wire Wire Line
	2000 3150 2325 3150
$Comp
L power:+5V #PWR0110
U 1 1 659E7B1E
P 2000 2700
F 0 "#PWR0110" H 2000 2550 50  0001 C CNN
F 1 "+5V" H 2015 2873 50  0000 C CNN
F 2 "" H 2000 2700 50  0001 C CNN
F 3 "" H 2000 2700 50  0001 C CNN
	1    2000 2700
	1    0    0    -1  
$EndComp
Wire Wire Line
	2000 3150 2000 3075
Wire Wire Line
	2000 2775 2000 2700
$EndSCHEMATC
