EESchema Schematic File Version 4
EELAYER 29 0
EELAYER END
$Descr A4 11693 8268
encoding utf-8
Sheet 1 1
Title ""
Date ""
Rev ""
Comp ""
Comment1 ""
Comment2 ""
Comment3 ""
Comment4 ""
$EndDescr
$Comp
L Connector_Generic:Conn_01x08 J1
U 1 1 5C7138CD
P 2650 2050
F 0 "J1" H 2730 2042 50  0000 L CNN
F 1 "Conn_01x08" H 2730 1951 50  0000 L CNN
F 2 "Connector_PinHeader_2.54mm:PinHeader_1x08_P2.54mm_Horizontal" H 2650 2050 50  0001 C CNN
F 3 "~" H 2650 2050 50  0001 C CNN
	1    2650 2050
	1    0    0    -1  
$EndComp
$Comp
L Connector_Generic:Conn_01x08 J3
U 1 1 5C7141CA
P 3950 2050
F 0 "J3" H 4030 2042 50  0000 L CNN
F 1 "Conn_01x08" H 4030 1951 50  0000 L CNN
F 2 "Connector_PinSocket_2.54mm:PinSocket_1x08_P2.54mm_Vertical" H 3950 2050 50  0001 C CNN
F 3 "~" H 3950 2050 50  0001 C CNN
	1    3950 2050
	1    0    0    -1  
$EndComp
Wire Wire Line
	3750 1750 2450 1750
Wire Wire Line
	3750 1850 2450 1850
Wire Wire Line
	3750 1950 2450 1950
Wire Wire Line
	2250 2050 2250 2000
$Comp
L power:GND #PWR0101
U 1 1 5C715A0D
P 2250 2250
F 0 "#PWR0101" H 2250 2000 50  0001 C CNN
F 1 "GND" H 2255 2077 50  0000 C CNN
F 2 "" H 2250 2250 50  0001 C CNN
F 3 "" H 2250 2250 50  0001 C CNN
	1    2250 2250
	1    0    0    -1  
$EndComp
$Comp
L power:GND #PWR0102
U 1 1 5C71631E
P 4250 2250
F 0 "#PWR0102" H 4250 2000 50  0001 C CNN
F 1 "GND" H 4255 2077 50  0000 C CNN
F 2 "" H 4250 2250 50  0001 C CNN
F 3 "" H 4250 2250 50  0001 C CNN
	1    4250 2250
	1    0    0    -1  
$EndComp
Wire Wire Line
	2450 2250 2250 2250
Wire Wire Line
	2450 2450 3600 2450
Wire Wire Line
	3750 2350 2450 2350
$Comp
L power:+5V #PWR0103
U 1 1 5C717A1E
P 2250 2000
F 0 "#PWR0103" H 2250 1850 50  0001 C CNN
F 1 "+5V" H 2265 2173 50  0000 C CNN
F 2 "" H 2250 2000 50  0001 C CNN
F 3 "" H 2250 2000 50  0001 C CNN
	1    2250 2000
	1    0    0    -1  
$EndComp
Text Label 3000 1750 0    50   ~ 0
_KBCLOCK
Text Label 3000 1850 0    50   ~ 0
_KBDATA
Text Label 3000 1950 0    50   ~ 0
_KBRESET
Text Label 3050 2050 0    50   ~ 0
VCC
Text Label 3050 2350 0    50   ~ 0
STATUS
Text Label 3050 2450 0    50   ~ 0
INUSE
Wire Wire Line
	3750 2250 4250 2250
$Comp
L Connector_Generic:Conn_01x01 J2
U 1 1 5C71AD82
P 2650 2850
F 0 "J2" H 2568 2625 50  0000 C CNN
F 1 "Conn_01x01" H 2568 2716 50  0000 C CNN
F 2 "Connector_PinHeader_2.54mm:PinHeader_1x01_P2.54mm_Horizontal" H 2650 2850 50  0001 C CNN
F 3 "~" H 2650 2850 50  0001 C CNN
	1    2650 2850
	-1   0    0    1   
$EndComp
$Comp
L Device:R R1
U 1 1 5C71BA1C
P 3150 2850
F 0 "R1" V 2943 2850 50  0000 C CNN
F 1 "4.7k" V 3034 2850 50  0000 C CNN
F 2 "Resistor_THT:R_Axial_DIN0207_L6.3mm_D2.5mm_P10.16mm_Horizontal" V 3080 2850 50  0001 C CNN
F 3 "~" H 3150 2850 50  0001 C CNN
	1    3150 2850
	0    1    1    0   
$EndComp
Wire Wire Line
	3600 2650 3600 2450
Connection ~ 3600 2450
Wire Wire Line
	2850 2850 2900 2850
$Comp
L Device:R R2
U 1 1 5C71EE77
P 3150 3450
F 0 "R2" V 2943 3450 50  0000 C CNN
F 1 "10k" V 3034 3450 50  0000 C CNN
F 2 "Resistor_THT:R_Axial_DIN0207_L6.3mm_D2.5mm_P10.16mm_Horizontal" V 3080 3450 50  0001 C CNN
F 3 "~" H 3150 3450 50  0001 C CNN
	1    3150 3450
	0    1    1    0   
$EndComp
Wire Wire Line
	3000 3150 2900 3150
Wire Wire Line
	2900 3150 2900 2850
Connection ~ 2900 2850
Wire Wire Line
	2900 2850 3000 2850
$Comp
L Device:Q_PNP_EBC Q1
U 1 1 5C725B70
P 3500 2850
F 0 "Q1" H 3690 2896 50  0000 L CNN
F 1 "2N3906" H 3690 2805 50  0000 L CNN
F 2 "Package_TO_SOT_THT:TO-92_HandSolder" H 3700 2950 50  0001 C CNN
F 3 "~" H 3500 2850 50  0001 C CNN
	1    3500 2850
	1    0    0    -1  
$EndComp
Wire Wire Line
	2250 2050 2450 2050
Connection ~ 2450 2050
Wire Wire Line
	2450 2050 3750 2050
$Comp
L Device:Q_PNP_BEC Q2
U 1 1 5C72B0F2
P 3700 3400
F 0 "Q2" H 3891 3446 50  0000 L CNN
F 1 "BC807" H 3891 3355 50  0000 L CNN
F 2 "Package_TO_SOT_SMD:SOT-23" H 3900 3500 50  0001 C CNN
F 3 "~" H 3700 3400 50  0001 C CNN
	1    3700 3400
	1    0    0    -1  
$EndComp
$Comp
L Device:R R3
U 1 1 5C72C169
P 3150 3150
F 0 "R3" V 2943 3150 50  0000 C CNN
F 1 "4.7k" V 3034 3150 50  0000 C CNN
F 2 "Resistor_SMD:R_0805_2012Metric_Pad1.15x1.40mm_HandSolder" V 3080 3150 50  0001 C CNN
F 3 "~" H 3150 3150 50  0001 C CNN
	1    3150 3150
	0    1    1    0   
$EndComp
$Comp
L Device:R R4
U 1 1 5C72CA97
P 3150 3750
F 0 "R4" V 2943 3750 50  0000 C CNN
F 1 "10k" V 3034 3750 50  0000 C CNN
F 2 "Resistor_SMD:R_0805_2012Metric_Pad1.15x1.40mm_HandSolder" V 3080 3750 50  0001 C CNN
F 3 "~" H 3150 3750 50  0001 C CNN
	1    3150 3750
	0    1    1    0   
$EndComp
Wire Wire Line
	2900 3150 2900 3450
Wire Wire Line
	2900 3450 3000 3450
Connection ~ 2900 3150
Wire Wire Line
	2900 3450 2900 3750
Wire Wire Line
	2900 3750 3000 3750
Connection ~ 2900 3450
Wire Wire Line
	4300 3750 4300 3700
$Comp
L power:+5V #PWR0105
U 1 1 5C72EBBC
P 4300 3700
F 0 "#PWR0105" H 4300 3550 50  0001 C CNN
F 1 "+5V" H 4315 3873 50  0000 C CNN
F 2 "" H 4300 3700 50  0001 C CNN
F 3 "" H 4300 3700 50  0001 C CNN
	1    4300 3700
	1    0    0    -1  
$EndComp
Wire Wire Line
	3300 3150 3300 2850
Connection ~ 3300 2850
Wire Wire Line
	3300 3150 3300 3400
Connection ~ 3300 3150
Wire Wire Line
	3300 3450 3300 3750
Connection ~ 3300 3750
Wire Wire Line
	3600 2450 3750 2450
Wire Wire Line
	3300 3750 3800 3750
Wire Wire Line
	3500 3400 3300 3400
Wire Wire Line
	3600 3050 3600 3600
Wire Wire Line
	3600 3600 3800 3600
Wire Wire Line
	3800 3600 3800 3750
Connection ~ 3800 3600
Connection ~ 3800 3750
Wire Wire Line
	3800 3750 4300 3750
Wire Wire Line
	3800 3200 3800 2650
Wire Wire Line
	3800 2650 3600 2650
Connection ~ 3600 2650
Text Notes 4100 3200 0    50   ~ 0
choice of part types based on personal preference:\nplace Q1/R1/R2 as THT       \n_OR_\nplace Q2/R3/R4 as SMD (SOT23,R0805)
$EndSCHEMATC
